# 3ds Max Wavefront OBJ Exporter v0.97b - (c)2007 guruware
# File Created: 09.12.2020 10:12:13

newmtl wire_000000000
	Ns 32
	d 1
	Tr 0
	Tf 1 1 1
	illum 2
	Ka 0.0000 0.0000 0.0000
	Kd 0.0000 0.0000 0.0000
	Ks 0.3500 0.3500 0.3500

newmtl 454
	Ns 70.0000
	Ni 1.5000
	d 1.0000
	Tr 0.0000
	Tf 1.0000 1.0000 1.0000 
	illum 2
	Ka 0.0039 0.0235 0.0275
	Kd 1.0000 1.0000 1.0000
	Ks 0.0000 0.0000 0.0000
	Ke 0.0000 0.0000 0.0000

newmtl frosta
	Ns 3.0000
	Ni 1.5000
	d 0.9000
	Tr 0.1000
	Tf 0.9000 0.9000 0.9000 
	illum 2
	Ka 1.0000 1.0000 1.0000
	Kd 1.0000 1.0000 1.0000
	Ks 0.0450 0.0450 0.0450
	Ke 0.7000 0.7000 0.7000

newmtl wire_141007058
	Ns 32
	d 1
	Tr 0
	Tf 1 1 1
	illum 2
	Ka 0.5529 0.0275 0.2275
	Kd 0.5529 0.0275 0.2275
	Ks 0.3500 0.3500 0.3500

newmtl wire_028028177
	Ns 32
	d 1
	Tr 0
	Tf 1 1 1
	illum 2
	Ka 0.1098 0.1098 0.6941
	Kd 0.1098 0.1098 0.6941
	Ks 0.3500 0.3500 0.3500

newmtl wire_153228214
	Ns 32
	d 1
	Tr 0
	Tf 1 1 1
	illum 2
	Ka 0.6000 0.8941 0.8392
	Kd 0.6000 0.8941 0.8392
	Ks 0.3500 0.3500 0.3500

newmtl Material__2097650072
	Ns 10.0000
	Ni 1.5000
	d 1.0000
	Tr 0.0000
	Tf 1.0000 1.0000 1.0000 
	illum 2
	Ka 0.5880 0.5880 0.5880
	Kd 0.5880 0.5880 0.5880
	Ks 0.0000 0.0000 0.0000
	Ke 0.0000 0.0000 0.0000

newmtl Foregrou
	Ns 0.0000
	Ni 1.5000
	d 1.0000
	Tr 0.0000
	Tf 1.0000 1.0000 1.0000 
	illum 2
	Ka 0.0000 0.0000 0.0000
	Kd 0.0000 0.0000 0.0000
	Ks 0.0000 0.0000 0.0000
	Ke 0.0000 0.0000 0.0000

newmtl wire_027177148
	Ns 32
	d 1
	Tr 0
	Tf 1 1 1
	illum 2
	Ka 0.1059 0.6941 0.5804
	Kd 0.1059 0.6941 0.5804
	Ks 0.3500 0.3500 0.3500

newmtl cap
	Ns 60.0000
	Ni 1.5000
	d 0.1000
	Tr 0.9000
	Tf 0.1000 0.1000 0.1000 
	illum 2
	Ka 1.0000 1.0000 1.0000
	Kd 1.0000 1.0000 1.0000
	Ks 0.9000 0.9000 0.9000
	Ke 0.0000 0.0000 0.0000

newmtl _10
	Ns 0.0000
	Ni 1.5000
	d 0.3300
	Tr 0.6700
	Tf 0.3300 0.3300 0.3300 
	illum 2
	Ka 0.0000 0.0000 0.0000
	Kd 0.2275 0.2275 0.2275
	Ks 0.0000 0.0000 0.0000
	Ke 0.0000 0.0000 0.0000

newmtl _19
	Ns 0.0000
	Ni 1.5000
	d 1.0000
	Tr 0.0000
	Tf 1.0000 1.0000 1.0000 
	illum 2
	Ka 0.0000 0.0000 0.0000
	Kd 0.0745 0.0745 0.0745
	Ks 0.0000 0.0000 0.0000
	Ke 0.0000 0.0000 0.0000

newmtl _16
	Ns 0.0000
	Ni 1.5000
	d 1.0000
	Tr 0.0000
	Tf 1.0000 1.0000 1.0000 
	illum 2
	Ka 0.0000 0.0000 0.0000
	Kd 0.1569 0.1569 0.1569
	Ks 0.0000 0.0000 0.0000
	Ke 0.0000 0.0000 0.0000

newmtl GoPro_HE
	Ns 0.0000
	Ni 1.5000
	d 1.0000
	Tr 0.0000
	Tf 1.0000 1.0000 1.0000 
	illum 2
	Ka 0.0000 0.0000 0.0000
	Kd 0.7608 0.7529 0.7451
	Ks 0.0000 0.0000 0.0000
	Ke 0.0000 0.0000 0.0000
	map_Ka GoPro_HE.jpg
	map_Kd GoPro_HE.jpg

newmtl FrontCol
	Ns 0.0000
	Ni 1.5000
	d 1.0000
	Tr 0.0000
	Tf 1.0000 1.0000 1.0000 
	illum 2
	Ka 0.0000 0.0000 0.0000
	Kd 1.0000 1.0000 1.0000
	Ks 0.0000 0.0000 0.0000
	Ke 0.0000 0.0000 0.0000

newmtl _30
	Ns 0.0000
	Ni 1.5000
	d 1.0000
	Tr 0.0000
	Tf 1.0000 1.0000 1.0000 
	illum 2
	Ka 0.0000 0.0000 0.0000
	Kd 0.3020 0.0000 0.0000
	Ks 0.0000 0.0000 0.0000
	Ke 0.0000 0.0000 0.0000

newmtl _5
	Ns 0.0000
	Ni 1.5000
	d 1.0000
	Tr 0.0000
	Tf 1.0000 1.0000 1.0000 
	illum 2
	Ka 0.0000 0.0000 0.0000
	Kd 0.6039 0.6039 0.6039
	Ks 0.0000 0.0000 0.0000
	Ke 0.0000 0.0000 0.0000

newmtl Color_00
	Ns 0.0000
	Ni 1.5000
	d 1.0000
	Tr 0.0000
	Tf 1.0000 1.0000 1.0000 
	illum 2
	Ka 0.0000 0.0000 0.0000
	Kd 0.8863 0.8863 0.8863
	Ks 0.0000 0.0000 0.0000
	Ke 0.0000 0.0000 0.0000

newmtl _1
	Ns 0.0000
	Ni 1.5000
	d 1.0000
	Tr 0.0000
	Tf 1.0000 1.0000 1.0000 
	illum 2
	Ka 0.0000 0.0000 0.0000
	Kd 0.0902 0.0902 0.0902
	Ks 0.0000 0.0000 0.0000
	Ke 0.0000 0.0000 0.0000

newmtl _17
	Ns 0.0000
	Ni 1.5000
	d 1.0000
	Tr 0.0000
	Tf 1.0000 1.0000 1.0000 
	illum 2
	Ka 0.0000 0.0000 0.0000
	Kd 0.3804 0.3804 0.3804
	Ks 0.0000 0.0000 0.0000
	Ke 0.0000 0.0000 0.0000

newmtl _2
	Ns 0.0000
	Ni 1.5000
	d 1.0000
	Tr 0.0000
	Tf 1.0000 1.0000 1.0000 
	illum 2
	Ka 0.0000 0.0000 0.0000
	Kd 0.1373 0.1373 0.1373
	Ks 0.0000 0.0000 0.0000
	Ke 0.0000 0.0000 0.0000

newmtl _18
	Ns 0.0000
	Ni 1.5000
	d 1.0000
	Tr 0.0000
	Tf 1.0000 1.0000 1.0000 
	illum 2
	Ka 0.0000 0.0000 0.0000
	Kd 0.3333 0.3333 0.3333
	Ks 0.0000 0.0000 0.0000
	Ke 0.0000 0.0000 0.0000

newmtl _29
	Ns 0.0000
	Ni 1.5000
	d 1.0000
	Tr 0.0000
	Tf 1.0000 1.0000 1.0000 
	illum 2
	Ka 0.0000 0.0000 0.0000
	Kd 0.5529 0.0039 0.0902
	Ks 0.0000 0.0000 0.0000
	Ke 0.0000 0.0000 0.0000

newmtl _21
	Ns 0.0000
	Ni 1.5000
	d 1.0000
	Tr 0.0000
	Tf 1.0000 1.0000 1.0000 
	illum 2
	Ka 0.0000 0.0000 0.0000
	Kd 0.0627 0.0627 0.0627
	Ks 0.0000 0.0000 0.0000
	Ke 0.0000 0.0000 0.0000

newmtl _20
	Ns 0.0000
	Ni 1.5000
	d 1.0000
	Tr 0.0000
	Tf 1.0000 1.0000 1.0000 
	illum 2
	Ka 0.0000 0.0000 0.0000
	Kd 0.1294 0.1294 0.1294
	Ks 0.0000 0.0000 0.0000
	Ke 0.0000 0.0000 0.0000

newmtl Material__2097632773
	Ns 10.0000
	Ni 1.5000
	d 1.0000
	Tr 0.0000
	Tf 1.0000 1.0000 1.0000 
	illum 2
	Ka 0.5882 0.5882 0.5882
	Kd 0.5882 0.5882 0.5882
	Ks 0.0000 0.0000 0.0000
	Ke 0.0000 0.0000 0.0000

newmtl Calla_Lilly_Flower_2_Stem01
	Ns 53.8082
	Ni 1.0000
	d 1.0000
	Tr 0.0000
	Tf 1.0000 1.0000 1.0000 
	illum 2
	Ka 0.0000 0.0000 0.0000
	Kd 0.0000 0.7686 0.0000
	Ks 0.0500 0.0500 0.0500
	Ke 0.0000 0.0000 0.0000

newmtl Calla_Lily_Leaf_03
	Ns 53.8082
	Ni 1.0000
	d 1.0000
	Tr 0.0000
	Tf 1.0000 1.0000 1.0000 
	illum 2
	Ka 0.0284 0.0412 0.0088
	Kd 0.5686 0.8235 0.1765
	Ks 0.0500 0.0500 0.0500
	Ke 0.0114 0.0165 0.0035

newmtl Calla_Lilly_Flower_1_Stem01
	Ns 53.8082
	Ni 1.0000
	d 1.0000
	Tr 0.0000
	Tf 1.0000 1.0000 1.0000 
	illum 2
	Ka 0.0000 0.0000 0.0000
	Kd 0.0000 0.7686 0.0000
	Ks 0.0500 0.0500 0.0500
	Ke 0.0000 0.0000 0.0000

newmtl Calla_Lilly_Flower_01
	Ns 53.8082
	Ni 1.0000
	d 1.0000
	Tr 0.0000
	Tf 1.0000 1.0000 1.0000 
	illum 2
	Ka 1.0000 1.0000 1.0000
	Kd 1.0000 1.0000 1.0000
	Ks 0.0500 0.0500 0.0500
	Ke 0.6000 0.6000 0.6000

newmtl Calla_Lily_Leaf_01
	Ns 53.8082
	Ni 1.0000
	d 1.0000
	Tr 0.0000
	Tf 1.0000 1.0000 1.0000 
	illum 2
	Ka 0.0284 0.0412 0.0088
	Kd 0.5686 0.8235 0.1765
	Ks 0.0500 0.0500 0.0500
	Ke 0.0114 0.0165 0.0035

newmtl Calla_Lily_Leaf_05
	Ns 53.8082
	Ni 1.0000
	d 1.0000
	Tr 0.0000
	Tf 1.0000 1.0000 1.0000 
	illum 2
	Ka 0.0284 0.0412 0.0088
	Kd 0.5686 0.8235 0.1765
	Ks 0.0500 0.0500 0.0500
	Ke 0.0114 0.0165 0.0035

newmtl Calla_Lily_Leaf_02
	Ns 53.8082
	Ni 1.0000
	d 1.0000
	Tr 0.0000
	Tf 1.0000 1.0000 1.0000 
	illum 2
	Ka 0.0284 0.0412 0.0088
	Kd 0.5686 0.8235 0.1765
	Ks 0.0500 0.0500 0.0500
	Ke 0.0114 0.0165 0.0035

newmtl Calla_Lily_Leaf_04
	Ns 53.8082
	Ni 1.0000
	d 1.0000
	Tr 0.0000
	Tf 1.0000 1.0000 1.0000 
	illum 2
	Ka 0.0284 0.0412 0.0088
	Kd 0.5686 0.8235 0.1765
	Ks 0.0500 0.0500 0.0500
	Ke 0.0114 0.0165 0.0035

newmtl Calla_Lilly_Flower_02
	Ns 53.8082
	Ni 1.0000
	d 1.0000
	Tr 0.0000
	Tf 1.0000 1.0000 1.0000 
	illum 2
	Ka 0.0000 0.0000 0.0000
	Kd 1.0000 1.0000 1.0000
	Ks 0.0500 0.0500 0.0500
	Ke 0.5100 0.5100 0.5100

newmtl driverbody__Driver_D_tga
	Ns 0.0000
	Ni 1.5000
	d 1.0000
	Tr 0.0000
	Tf 1.0000 1.0000 1.0000 
	illum 2
	Ka 0.0000 0.0000 0.0000
	Kd 0.8000 0.8000 0.8000
	Ks 0.5000 0.5000 0.5000
	Ke 0.0000 0.0000 0.0000

newmtl driverhelmet__Driver_D_tga
	Ns 0.0000
	Ni 1.5000
	d 1.0000
	Tr 0.0000
	Tf 1.0000 1.0000 1.0000 
	illum 2
	Ka 0.0000 0.0000 0.0000
	Kd 0.8000 0.8000 0.8000
	Ks 1.0000 1.0000 1.0000
	Ke 0.0000 0.0000 0.0000

newmtl 0128_Whi
	Ns 0.0000
	Ni 1.5000
	d 1.0000
	Tr 0.0000
	Tf 1.0000 1.0000 1.0000 
	illum 2
	Ka 0.0000 0.0000 0.0000
	Kd 1.0000 1.0000 1.0000
	Ks 0.0000 0.0000 0.0000
	Ke 0.0000 0.0000 0.0000

newmtl 0135_Dar
	Ns 0.0000
	Ni 1.5000
	d 1.0000
	Tr 0.0000
	Tf 1.0000 1.0000 1.0000 
	illum 2
	Ka 0.0000 0.0000 0.0000
	Kd 0.3176 0.3176 0.3176
	Ks 0.0000 0.0000 0.0000
	Ke 0.0000 0.0000 0.0000

newmtl 0131_Sil
	Ns 0.0000
	Ni 1.5000
	d 1.0000
	Tr 0.0000
	Tf 1.0000 1.0000 1.0000 
	illum 2
	Ka 0.0000 0.0000 0.0000
	Kd 0.7529 0.7529 0.7529
	Ks 0.0000 0.0000 0.0000
	Ke 0.0000 0.0000 0.0000

newmtl 0133_Gra
	Ns 0.0000
	Ni 1.5000
	d 1.0000
	Tr 0.0000
	Tf 1.0000 1.0000 1.0000 
	illum 2
	Ka 0.0000 0.0000 0.0000
	Kd 0.5020 0.5020 0.5020
	Ks 0.0000 0.0000 0.0000
	Ke 0.0000 0.0000 0.0000

newmtl Transluc
	Ns 0.0000
	Ni 1.5000
	d 0.2500
	Tr 0.7500
	Tf 0.2500 0.2500 0.2500 
	illum 2
	Ka 0.0000 0.0000 0.0000
	Kd 0.5020 0.5020 0.5020
	Ks 0.0000 0.0000 0.0000
	Ke 0.0000 0.0000 0.0000

newmtl Transl01
	Ns 0.0000
	Ni 1.5000
	d 0.8500
	Tr 0.1500
	Tf 0.8500 0.8500 0.8500 
	illum 2
	Ka 0.0000 0.0000 0.0000
	Kd 0.0784 0.0078 0.0392
	Ks 0.0000 0.0000 0.0000
	Ke 0.0000 0.0000 0.0000

newmtl _Translu
	Ns 0.0000
	Ni 1.5000
	d 0.9000
	Tr 0.1000
	Tf 0.9000 0.9000 0.9000 
	illum 2
	Ka 0.0000 0.0000 0.0000
	Kd 0.5020 0.5020 0.5020
	Ks 0.0000 0.0000 0.0000
	Ke 0.0000 0.0000 0.0000

newmtl 0132_Lig
	Ns 0.0000
	Ni 1.5000
	d 1.0000
	Tr 0.0000
	Tf 1.0000 1.0000 1.0000 
	illum 2
	Ka 0.0000 0.0000 0.0000
	Kd 0.6627 0.6627 0.6627
	Ks 0.0000 0.0000 0.0000
	Ke 0.0000 0.0000 0.0000

newmtl Metal_St
	Ns 0.0000
	Ni 1.5000
	d 1.0000
	Tr 0.0000
	Tf 1.0000 1.0000 1.0000 
	illum 2
	Ka 0.0000 0.0000 0.0000
	Kd 0.7490 0.7490 0.7490
	Ks 0.0000 0.0000 0.0000
	Ke 0.0000 0.0000 0.0000
	map_Ka Metal_St.jpg
	map_Kd Metal_St.jpg

newmtl carbon
	Ns 0.0000
	Ni 1.5000
	d 1.0000
	Tr 0.0000
	Tf 1.0000 1.0000 1.0000 
	illum 2
	Ka 0.0000 0.0000 0.0000
	Kd 0.1098 0.1020 0.0941
	Ks 0.0000 0.0000 0.0000
	Ke 0.0000 0.0000 0.0000
	map_Ka carbon.jpg
	map_Kd carbon.jpg

newmtl _8
	Ns 0.0000
	Ni 1.5000
	d 1.0000
	Tr 0.0000
	Tf 1.0000 1.0000 1.0000 
	illum 2
	Ka 0.0000 0.0000 0.0000
	Kd 0.8275 0.2471 0.1451
	Ks 0.0000 0.0000 0.0000
	Ke 0.0000 0.0000 0.0000
	map_Ka _8.jpg
	map_Kd _8.jpg

newmtl plastic
	Ns 0.0000
	Ni 1.5000
	d 1.0000
	Tr 0.0000
	Tf 1.0000 1.0000 1.0000 
	illum 2
	Ka 0.0000 0.0000 0.0000
	Kd 0.3569 0.4627 0.7647
	Ks 0.0000 0.0000 0.0000
	Ke 0.0000 0.0000 0.0000
	map_Ka plastic.jpg
	map_Kd plastic.jpg

newmtl _Metal_S
	Ns 0.0000
	Ni 1.5000
	d 1.0000
	Tr 0.0000
	Tf 1.0000 1.0000 1.0000 
	illum 2
	Ka 0.0000 0.0000 0.0000
	Kd 0.7490 0.7490 0.7490
	Ks 0.0000 0.0000 0.0000
	Ke 0.0000 0.0000 0.0000
	map_Ka _Metal_S.jpg
	map_Kd _Metal_S.jpg

newmtl Color_02
	Ns 0.0000
	Ni 1.5000
	d 1.0000
	Tr 0.0000
	Tf 1.0000 1.0000 1.0000 
	illum 2
	Ka 0.0000 0.0000 0.0000
	Kd 0.0000 0.0000 0.0000
	Ks 0.0000 0.0000 0.0000
	Ke 0.0000 0.0000 0.0000

newmtl Color_B0
	Ns 0.0000
	Ni 1.5000
	d 1.0000
	Tr 0.0000
	Tf 1.0000 1.0000 1.0000 
	illum 2
	Ka 0.0000 0.0000 0.0000
	Kd 1.0000 0.2471 0.0000
	Ks 0.0000 0.0000 0.0000
	Ke 0.0000 0.0000 0.0000

newmtl Color_E0
	Ns 0.0000
	Ni 1.5000
	d 1.0000
	Tr 0.0000
	Tf 1.0000 1.0000 1.0000 
	illum 2
	Ka 0.0000 0.0000 0.0000
	Kd 1.0000 1.0000 0.0000
	Ks 0.0000 0.0000 0.0000
	Ke 0.0000 0.0000 0.0000

newmtl Color_I0
	Ns 0.0000
	Ni 1.5000
	d 1.0000
	Tr 0.0000
	Tf 1.0000 1.0000 1.0000 
	illum 2
	Ka 0.0000 0.0000 0.0000
	Kd 0.0000 0.0000 0.8000
	Ks 0.0000 0.0000 0.0000
	Ke 0.0000 0.0000 0.0000

newmtl Color_03
	Ns 0.0000
	Ni 1.5000
	d 1.0000
	Tr 0.0000
	Tf 1.0000 1.0000 1.0000 
	illum 2
	Ka 0.0000 0.0000 0.0000
	Kd 0.1569 0.1569 0.4000
	Ks 0.0000 0.0000 0.0000
	Ke 0.0000 0.0000 0.0000

newmtl Color_04
	Ns 0.0000
	Ni 1.5000
	d 1.0000
	Tr 0.0000
	Tf 1.0000 1.0000 1.0000 
	illum 2
	Ka 0.0000 0.0000 0.0000
	Kd 0.0784 0.0784 0.4000
	Ks 0.0000 0.0000 0.0000
	Ke 0.0000 0.0000 0.0000

newmtl Color_I1
	Ns 0.0000
	Ni 1.5000
	d 1.0000
	Tr 0.0000
	Tf 1.0000 1.0000 1.0000 
	illum 2
	Ka 0.0000 0.0000 0.0000
	Kd 0.0000 0.0000 0.4000
	Ks 0.0000 0.0000 0.0000
	Ke 0.0000 0.0000 0.0000

newmtl _Metal_C
	Ns 0.0000
	Ni 1.5000
	d 1.0000
	Tr 0.0000
	Tf 1.0000 1.0000 1.0000 
	illum 2
	Ka 0.0000 0.0000 0.0000
	Kd 0.7569 0.7569 0.7569
	Ks 0.0000 0.0000 0.0000
	Ke 0.0000 0.0000 0.0000
	map_Ka _Metal_C.jpg
	map_Kd _Metal_C.jpg

newmtl Color_05
	Ns 0.0000
	Ni 1.5000
	d 1.0000
	Tr 0.0000
	Tf 1.0000 1.0000 1.0000 
	illum 2
	Ka 0.0000 0.0000 0.0000
	Kd 0.2392 0.2392 0.6000
	Ks 0.0000 0.0000 0.0000
	Ke 0.0000 0.0000 0.0000

newmtl Color_06
	Ns 0.0000
	Ni 1.5000
	d 1.0000
	Tr 0.0000
	Tf 1.0000 1.0000 1.0000 
	illum 2
	Ka 0.0000 0.0000 0.0000
	Kd 1.0000 1.0000 1.0000
	Ks 0.0000 0.0000 0.0000
	Ke 0.0000 0.0000 0.0000

newmtl Metal_Br
	Ns 0.0000
	Ni 1.5000
	d 1.0000
	Tr 0.0000
	Tf 1.0000 1.0000 1.0000 
	illum 2
	Ka 0.0000 0.0000 0.0000
	Kd 0.8627 0.6510 0.4745
	Ks 0.0000 0.0000 0.0000
	Ke 0.0000 0.0000 0.0000
	map_Ka Metal_Br.jpg
	map_Kd Metal_Br.jpg

newmtl Color_D0
	Ns 0.0000
	Ni 1.5000
	d 1.0000
	Tr 0.0000
	Tf 1.0000 1.0000 1.0000 
	illum 2
	Ka 0.0000 0.0000 0.0000
	Kd 1.0000 0.8000 0.1961
	Ks 0.0000 0.0000 0.0000
	Ke 0.0000 0.0000 0.0000

newmtl Color_D1
	Ns 0.0000
	Ni 1.5000
	d 1.0000
	Tr 0.0000
	Tf 1.0000 1.0000 1.0000 
	illum 2
	Ka 0.0000 0.0000 0.0000
	Kd 0.6000 0.4471 0.0000
	Ks 0.0000 0.0000 0.0000
	Ke 0.0000 0.0000 0.0000

newmtl Color_01
	Ns 0.0000
	Ni 1.5000
	d 1.0000
	Tr 0.0000
	Tf 1.0000 1.0000 1.0000 
	illum 2
	Ka 0.0000 0.0000 0.0000
	Kd 0.2275 0.2275 0.2275
	Ks 0.0000 0.0000 0.0000
	Ke 0.0000 0.0000 0.0000

newmtl Metal_Co
	Ns 0.0000
	Ni 1.5000
	d 1.0000
	Tr 0.0000
	Tf 1.0000 1.0000 1.0000 
	illum 2
	Ka 0.0000 0.0000 0.0000
	Kd 0.7569 0.7569 0.7569
	Ks 0.0000 0.0000 0.0000
	Ke 0.0000 0.0000 0.0000
	map_Ka Metal_Co.jpg
	map_Kd Metal_Co.jpg

newmtl wire_088199225
	Ns 32
	d 1
	Tr 0
	Tf 1 1 1
	illum 2
	Ka 0.3451 0.7804 0.8824
	Kd 0.3451 0.7804 0.8824
	Ks 0.3500 0.3500 0.3500

newmtl wire_177027088
	Ns 32
	d 1
	Tr 0
	Tf 1 1 1
	illum 2
	Ka 0.6941 0.1059 0.3451
	Kd 0.6941 0.1059 0.3451
	Ks 0.3500 0.3500 0.3500

newmtl 01___Default
	Ns 48.0000
	Ni 1.5000
	d 1.0000
	Tr 0.0000
	Tf 1.0000 1.0000 1.0000 
	illum 2
	Ka 0.9294 0.9294 0.9294
	Kd 0.9294 0.9294 0.9294
	Ks 1.0170 1.0170 1.0170
	Ke 0.0000 0.0000 0.0000

newmtl 02___Default
	Ns 45.0000
	Ni 1.5000
	d 1.0000
	Tr 0.0000
	Tf 1.0000 1.0000 1.0000 
	illum 2
	Ka 0.3882 0.3882 0.3882
	Kd 0.3882 0.3882 0.3882
	Ks 1.2690 1.2690 1.2690
	Ke 0.0000 0.0000 0.0000

newmtl 03___Default
	Ns 49.0000
	Ni 1.5000
	d 1.0000
	Tr 0.0000
	Tf 1.0000 1.0000 1.0000 
	illum 2
	Ka 0.2353 0.2353 0.2353
	Kd 0.2353 0.2353 0.2353
	Ks 0.9630 0.9630 0.9630
	Ke 0.0000 0.0000 0.0000

newmtl Material__29
	Ns 60.0000
	Ni 1.5000
	d 1.0000
	Tr 0.0000
	Tf 1.0000 1.0000 1.0000 
	illum 2
	Ka 0.0000 0.0000 0.0000
	Kd 0.0510 0.0510 0.0510
	Ks 0.2314 0.2314 0.2314
	Ke 0.0000 0.0000 0.0000

newmtl Material__244
	Ns 80.0000
	Ni 1.5000
	d 1.0000
	Tr 0.0000
	Tf 1.0000 1.0000 1.0000 
	illum 2
	Ka 0.0000 0.0000 0.0000
	Kd 0.0510 0.0510 0.0510
	Ks 0.8471 0.8471 0.8471
	Ke 0.0000 0.0000 0.0000

newmtl leather__Tan
	Ns 50.0000
	Ni 1.5000
	d 1.0000
	Tr 0.0000
	Tf 1.0000 1.0000 1.0000 
	illum 2
	Ka 0.0000 0.0000 0.0000
	Kd 0.8510 0.0353 0.0353
	Ks 0.0392 0.0392 0.0392
	Ke 0.0000 0.0000 0.0000

newmtl material
	Ns 0.0000
	Ni 1.5000
	d 1.0000
	Tr 0.0000
	Tf 1.0000 1.0000 1.0000 
	illum 2
	Ka 0.0000 0.0000 0.0000
	Kd 0.5216 0.4863 0.4471
	Ks 0.0000 0.0000 0.0000
	Ke 0.0000 0.0000 0.0000
	map_Ka F:\Works\Pico Works\IDA - Proposal 2@CommunicAsia 2011@2011@singapore\graphics\material.jpg
	map_Kd F:\Works\Pico Works\IDA - Proposal 2@CommunicAsia 2011@2011@singapore\graphics\material.jpg

newmtl materi01
	Ns 0.0000
	Ni 1.5000
	d 1.0000
	Tr 0.0000
	Tf 1.0000 1.0000 1.0000 
	illum 2
	Ka 0.0000 0.0000 0.0000
	Kd 0.7804 0.7490 0.7176
	Ks 0.0000 0.0000 0.0000
	Ke 0.0000 0.0000 0.0000

newmtl _3
	Ns 0.0000
	Ni 1.5000
	d 1.0000
	Tr 0.0000
	Tf 1.0000 1.0000 1.0000 
	illum 2
	Ka 0.0000 0.0000 0.0000
	Kd 0.3686 0.2392 0.1137
	Ks 0.0000 0.0000 0.0000
	Ke 0.0000 0.0000 0.0000

newmtl Material__2097652495
	Ns 0.0000
	Ni 1.5000
	d 1.0000
	Tr 0.0000
	Tf 1.0000 1.0000 1.0000 
	illum 2
	Ka 0.0000 0.0000 0.0000
	Kd 0.5020 0.5020 0.5020
	Ks 0.0000 0.0000 0.0000
	Ke 0.0000 0.0000 0.0000
